{
  "url-backend": "127.0.0.1",
  "port": 9999,

  "data-db-connection": "mongodb+srv://usuario-pruebas:paolagomez14@cluster0.fa8gqvu.mongodb.net/bd-registro-academico?retryWrites=true&w=majority&appName=Cluster0",
  "name-db": "bd-registro-academico"
}